Motif search
…
Here, green is the average number of hits within the distribution, blue is the average number of hits within the differentially regulated genes, and red is the gene with the maximum number of motif hits within the differentially expressed gene set.

Let’s save that to a file.

# show data and write it to a file
fimo_diff_reg

# A tibble: 274 x 9
    pattern            seq start  stop strand   score `p-value` `q-value`
      <chr>          <chr> <int> <int>  <chr>   <dbl>     <dbl>     <dbl>
 1 GGGACTTA PBANKA_0722700   247   254      + 14.8041  5.97e-06     0.387
 2 GGGACTTA PBANKA_1200091   185   192      - 14.7938  8.65e-06     0.387
 3 GGGACTTA PBANKA_0836800   214   221      - 14.2165  1.04e-05     0.387
 4 GGGCTTAA PBANKA_0200500   732   739      + 14.0206  1.13e-05     0.468
 5 GGGACTTA PBANKA_0100021   232   239      + 12.1959  1.17e-05     0.387
 6 GGGACTTA PBANKA_0317161   882   889      + 12.1959  1.17e-05     0.387
 7 GGGACTTA PBANKA_0943900   297   304      - 11.6186  1.41e-05     0.400
 8 GGGACTTA PBANKA_1040521   497   504      + 10.5361  2.62e-05     0.523
 9 GGGCTTAA PBANKA_0100021   233   240      + 11.7113  3.00e-05     0.576
10 GGGCTTAA PBANKA_0700041   768   775      + 11.7010  3.27e-05     0.576
# ... with 264 more rows, and 1 more variables: matched <chr>
…
